N,T (ns),TDN
1,41977321,0
1,6441408,0
1,5772843,0
1,4245014,0
1,4523187,0
1,5412810,0
1,3916220,0
1,4505921,0
1,4693516,0
1,4207870,0
2,5335868,0
2,4892621,0
2,3804665,0
2,4674008,0
2,5008587,0
2,5231277,0
2,4433778,0
2,4680814,0
2,4621964,0
2,4847045,0
3,5352816,0
3,4748662,0
3,5119127,0
3,4810738,0
3,4221753,0
3,6251042,0
3,4191068,0
3,4826959,0
3,5212809,0
3,4442694,0
4,5236717,0
4,5522031,0
4,4992870,0
4,5408403,0
4,5838626,0
4,6013368,0
4,4950838,0
4,5040977,0
4,5924674,0
4,4990028,0
5,18894296,0
5,18706338,0
5,17580226,0
5,18596867,0
5,17099720,0
5,20839319,0
5,21265124,0
5,22095341,0
5,18121490,0
5,16355706,0
6,5457487224,0
6,5619126425,0
6,5467069293,0
6,5492329274,0
6,5377498774,0
6,5362481770,0
6,5446713177,0
6,5423711479,0
6,5396441476,0
6,5414706778,0