%!PS-Adobe-3.0 EPSF-3.0
%%DocumentNeededResources: font Helvetica
%%+ font Helvetica-Bold
%%+ font Helvetica-Oblique
%%+ font Helvetica-BoldOblique
%%+ font Symbol
%%Title: R Graphics Output
%%Creator: R Software
%%Pages: (atend)
%%BoundingBox: 0 0 504 504
%%EndComments
%%BeginProlog
/bp  { gs sRGB gs } def
% begin .ps.prolog
/gs  { gsave } bind def
/gr  { grestore } bind def
/ep  { showpage gr gr } bind def
/m   { moveto } bind def
/l  { rlineto } bind def
/np  { newpath } bind def
/cp  { closepath } bind def
/f   { fill } bind def
/o   { stroke } bind def
/c   { newpath 0 360 arc } bind def
/r   { 4 2 roll moveto 1 copy 3 -1 roll exch 0 exch rlineto 0 rlineto -1 mul 0 exch rlineto closepath } bind def
/p1  { stroke } bind def
/p2  { gsave bg fill grestore newpath } bind def
/p3  { gsave bg fill grestore stroke } bind def
/p6  { gsave bg eofill grestore newpath } bind def
/p7  { gsave bg eofill grestore stroke } bind def
/t   { 5 -2 roll moveto gsave rotate
       1 index stringwidth pop
       mul neg 0 rmoveto show grestore } bind def
/ta  { 4 -2 roll moveto gsave rotate show } bind def
/tb  { 2 -1 roll 0 rmoveto show } bind def
/cl  { grestore gsave newpath 3 index 3 index moveto 1 index
       4 -1 roll lineto  exch 1 index lineto lineto
       closepath clip newpath } bind def
/rgb { setrgbcolor } bind def
/s   { scalefont setfont } bind def
% end   .ps.prolog
/sRGB { [ /CIEBasedABC
          << /DecodeLMN
               [ { dup 0.03928 le
                        {12.92321 div}
                        {0.055 add 1.055 div 2.4 exp }
                     ifelse
                 } bind dup dup
               ]
             /MatrixLMN [0.412457 0.212673 0.019334
                         0.357576 0.715152 0.119192
                         0.180437 0.072175 0.950301]
             /WhitePoint [0.9505 1.0 1.0890]
           >>
         ] setcolorspace } bind def
/srgb { setcolor } bind def
%%IncludeResource: font Helvetica
/Helvetica findfont
dup length dict begin
  {1 index /FID ne {def} {pop pop} ifelse} forall
  /Encoding ISOLatin1Encoding def
  currentdict
  end
/Font1 exch definefont pop
%%IncludeResource: font Helvetica-Bold
/Helvetica-Bold findfont
dup length dict begin
  {1 index /FID ne {def} {pop pop} ifelse} forall
  /Encoding ISOLatin1Encoding def
  currentdict
  end
/Font2 exch definefont pop
%%IncludeResource: font Helvetica-Oblique
/Helvetica-Oblique findfont
dup length dict begin
  {1 index /FID ne {def} {pop pop} ifelse} forall
  /Encoding ISOLatin1Encoding def
  currentdict
  end
/Font3 exch definefont pop
%%IncludeResource: font Helvetica-BoldOblique
/Helvetica-BoldOblique findfont
dup length dict begin
  {1 index /FID ne {def} {pop pop} ifelse} forall
  /Encoding ISOLatin1Encoding def
  currentdict
  end
/Font4 exch definefont pop
%%IncludeResource: font Symbol
/Symbol findfont
dup length dict begin
  {1 index /FID ne {def} {pop pop} ifelse} forall
  currentdict
  end
/Font5 exch definefont pop
%%EndProlog
%%Page: 1 1
bp
59.04 73.44 473.76 444.96 cl
/bg { 0 0 0 srgb } def
0 0 0 srgb
0.75 setlinewidth
[] 0 setdash
1 setlinecap
1 setlinejoin
10.00 setmiterlimit
74.40 431.20 2.70 c p3
75.18 407.74 2.70 c p3
75.95 352.61 2.70 c p3
76.73 330.36 2.70 c p3
77.50 322.15 2.70 c p3
78.28 287.34 2.70 c p3
79.05 302.19 2.70 c p3
79.83 300.17 2.70 c p3
80.61 281.68 2.70 c p3
81.38 282.38 2.70 c p3
82.16 267.97 2.70 c p3
82.93 270.88 2.70 c p3
83.71 234.25 2.70 c p3
84.48 224.03 2.70 c p3
85.26 246.31 2.70 c p3
86.04 240.36 2.70 c p3
87.98 234.75 2.70 c p3
89.92 214.84 2.70 c p3
91.85 211.10 2.70 c p3
93.79 200.67 2.70 c p3
95.73 204.32 2.70 c p3
97.67 207.32 2.70 c p3
99.61 206.15 2.70 c p3
101.55 190.88 2.70 c p3
103.49 185.09 2.70 c p3
105.43 196.93 2.70 c p3
107.37 183.96 2.70 c p3
109.31 185.11 2.70 c p3
113.19 179.29 2.70 c p3
117.07 179.43 2.70 c p3
120.95 172.09 2.70 c p3
124.82 174.74 2.70 c p3
128.70 173.07 2.70 c p3
132.58 173.24 2.70 c p3
136.46 167.06 2.70 c p3
140.34 162.43 2.70 c p3
144.22 155.56 2.70 c p3
148.10 156.99 2.70 c p3
155.85 154.98 2.70 c p3
163.61 155.99 2.70 c p3
171.37 157.00 2.70 c p3
179.13 143.46 2.70 c p3
186.88 117.14 2.70 c p3
194.64 104.53 2.70 c p3
202.40 104.25 2.70 c p3
210.16 115.29 2.70 c p3
217.92 100.81 2.70 c p3
225.67 104.75 2.70 c p3
245.07 105.05 2.70 c p3
264.46 99.23 2.70 c p3
283.85 99.01 2.70 c p3
303.25 93.11 2.70 c p3
322.64 91.63 2.70 c p3
342.04 94.83 2.70 c p3
361.43 99.13 2.70 c p3
380.82 98.78 2.70 c p3
400.22 87.20 2.70 c p3
419.61 93.27 2.70 c p3
439.01 97.73 2.70 c p3
458.40 97.45 2.70 c p3
0.00 0.00 504.00 504.00 cl
0 0 0 srgb
0.75 setlinewidth
[] 0 setdash
1 setlinecap
1 setlinejoin
10.00 setmiterlimit
np
70.52 73.44 m
387.88 0 l
o
np
70.52 73.44 m
0 -7.20 l
o
np
148.10 73.44 m
0 -7.20 l
o
np
225.67 73.44 m
0 -7.20 l
o
np
303.25 73.44 m
0 -7.20 l
o
np
380.82 73.44 m
0 -7.20 l
o
np
458.40 73.44 m
0 -7.20 l
o
/Font1 findfont 12 s
70.52 47.52 (0) .5 0 t
148.10 47.52 (10000) .5 0 t
225.67 47.52 (20000) .5 0 t
303.25 47.52 (30000) .5 0 t
380.82 47.52 (40000) .5 0 t
458.40 47.52 (50000) .5 0 t
np
59.04 77.43 m
0 356.58 l
o
np
59.04 77.43 m
-7.20 0 l
o
np
59.04 128.37 m
-7.20 0 l
o
np
59.04 179.31 m
-7.20 0 l
o
np
59.04 230.25 m
-7.20 0 l
o
np
59.04 281.19 m
-7.20 0 l
o
np
59.04 332.13 m
-7.20 0 l
o
np
59.04 383.07 m
-7.20 0 l
o
np
59.04 434.01 m
-7.20 0 l
o
41.76 77.43 (2500) .5 90 t
41.76 128.37 (3000) .5 90 t
41.76 179.31 (3500) .5 90 t
41.76 230.25 (4000) .5 90 t
41.76 281.19 (4500) .5 90 t
41.76 332.13 (5000) .5 90 t
41.76 383.07 (5500) .5 90 t
41.76 434.01 (6000) .5 90 t
np
59.04 73.44 m
414.72 0 l
0 371.52 l
-414.72 0 l
0 -371.52 l
o
0.00 0.00 504.00 504.00 cl
/Font2 findfont 14 s
0 0 0 srgb
183.16 469.45 (Time Comple) 0 ta
-0.210 (xity Divided) tb gr
/Font1 findfont 12 s
266.40 18.72 (N) .5 0 t
12.96 259.20 (T\(n\) / \(n * log n\)) .5 90 t
ep
%%Trailer
%%Pages: 1
%%EOF
